Using the tidyverse with Databases - Part III
…
Let’s have a squizz at the starwars dataset.

starwars

# A tibble: 87 x 14
   name  height  mass hair_color skin_color eye_color birth_year sex  
   <chr>  <int> <dbl> <chr>      <chr>      <chr>          <dbl> <chr>
 1 Luke~    172    77 blond      fair       blue            19   male 
 2 C-3PO    167    75 <NA>       gold       yellow         112   none 
 3 R2-D2     96    32 <NA>       white, bl~ red             33   none 
 4 Dart~    202   136 none       white      yellow          41.9 male 
 5 Leia~    150    49 brown      light      brown           19   fema~
 6 Owen~    178   120 brown, gr~ light      blue            52   male 
 7 Beru~    165    75 brown      light      blue            47   fema~
 8 R5-D4     97    32 <NA>       white, red red             NA   none 
 9 Bigg~    183    84 black      light      brown           24   male 
10 Obi-~    182    77 auburn, w~ fair       blue-gray       57   male 
# ... with 77 more rows, and 6 more variables: gender <chr>,
#   homeworld <chr>, species <chr>, films <list>, vehicles <list>,
#   starships <list>
…
(appearances <- starwars %>% 
  # let's save the characters appearances in the movies
  select(name, films) %>% 
  # we end up with {character_name, film} for every film the character appears in
  unnest(films) %>%
  # join it with our new films table
  inner_join(films) %>% 
  # select the id which we rename to film_id, and then the name of the character
  select(film_id = id, name))

# A tibble: 173 x 2
   film_id name          
     <int> <chr>         
 1       5 Luke Skywalker
 2       3 Luke Skywalker
 3       6 Luke Skywalker
 4       4 Luke Skywalker
 5       7 Luke Skywalker
 6       5 C-3PO         
 7       2 C-3PO         
 8       1 C-3PO         
 9       3 C-3PO         
10       6 C-3PO         
# ... with 163 more rows
…
  # Let's only consider some columns
  select(`Han Solo`:`Yoda`, respondent_id,
         age = Age, respondent_gender = Gender) %>% 
  # we have to collect the data since the pivot_longer is
  # not set up to work on DB Table data
  collect() %>% 
  # Put each character name which is currently the name of a column
  # in a column as a value
  pivot_longer(cols = c(`Han Solo`:`Yoda`), names_to = "name",
               values_to = "survey_id") %>% 
  # Get the actual text of the response - e.g. Very Favorable
  inner_join(svy_levels,
             by = c("survey_id" = "id")))

# A tibble: 7,657 x 6
   respondent_id age   respondent_gender name      survey_id level    
           <dbl> <chr> <chr>             <chr>         <int> <chr>    
 1    3292879998 18-29 Male              Han Solo          5 Very fav~
 2    3292879998 18-29 Male              Luke Sky~         5 Very fav~
 3    3292879998 18-29 Male              Leia Org~         5 Very fav~
 4    3292879998 18-29 Male              Anakin S~         5 Very fav~
 5    3292879998 18-29 Male              Obi-Wan ~         5 Very fav~
 6    3292879998 18-29 Male              Palpatine         5 Very fav~
 7    3292879998 18-29 Male              Darth Va~         5 Very fav~
 8    3292879998 18-29 Male              Lando Ca~         6 Unfamili~
 9    3292879998 18-29 Male              Boba Fett         6 Unfamili~
10    3292879998 18-29 Male              C-3P0             5 Very fav~
# ... with 7,647 more rows
…
(character_info <- character_survey %>%
  # we only want info for the characters that formed part of the survey
  left_join(char_query %>% 
              collect())) 

# A tibble: 29,012 x 11
   respondent_id age   respondent_gender name   survey_id level gender
           <dbl> <chr> <chr>             <chr>      <int> <chr> <chr> 
 1    3292879998 18-29 Male              Han S~         5 Very~ mascu~
 2    3292879998 18-29 Male              Han S~         5 Very~ mascu~
 3    3292879998 18-29 Male              Han S~         5 Very~ mascu~
 4    3292879998 18-29 Male              Han S~         5 Very~ mascu~
 5    3292879998 18-29 Male              Luke ~         5 Very~ mascu~
 6    3292879998 18-29 Male              Luke ~         5 Very~ mascu~
 7    3292879998 18-29 Male              Luke ~         5 Very~ mascu~
 8    3292879998 18-29 Male              Luke ~         5 Very~ mascu~
 9    3292879998 18-29 Male              Luke ~         5 Very~ mascu~
10    3292879998 18-29 Male              Leia ~         5 Very~ femin~
# ... with 29,002 more rows, and 4 more variables: homeworld <chr>,
#   species <chr>, films <chr>, year <dbl>
…
