Using the tidyverse with Databases - Part II
…
Bring it into R

Now finally, we are ready to bring our filtered and joined data into R by using collect().

(top_performers <- final_query %>% 
  collect())

# A tibble: 24 x 24
   series baker   age occupation hometown baker_last baker_first
    <dbl> <chr> <dbl> <chr>      <chr>    <chr>      <chr>      
 1      1 Edd      24 Debt coll~ Bradford Kimber     Edward     
 2      1 Mira~    37 Food buye~ Midhurs~ Browne     Miranda    
 3      1 Ruth     31 Retail ma~ Poynton~ Clemens    Ruth       
 4      2 Holly    31 Advertisi~ Leicest~ Bell       Holly      
 5      2 Joan~    41 Housewife  Ongar, ~ Wheatley   Joanne     
 6      2 Mary~    45 Housewife  Kidderm~ Boermans   Mary-Anne  
 7      3 Bren~    63 Recruitme~ Sutton ~ Lynch      Brendan    
 8      3 James    21 Medical s~ Hillswi~ Morton     James      
 9      3 John     23 Law stude~ Wigan    Whaite     John       
10      4 Fran~    31 Children'~ Market ~ Quinn      Frances    
# ... with 14 more rows, and 17 more variables: star_baker <int>,
#   technical_winner <int>, technical_top3 <int>,
#   technical_bottom <int>, technical_highest <dbl>,
#   technical_lowest <dbl>, technical_median <dbl>,
#   series_winner <int>, series_runner_up <int>,
#   total_episodes_appeared <dbl>, first_date_appeared <dbl>,
#   last_date_appeared <dbl>, first_date_us <dbl>,
#   last_date_us <dbl>, percent_episodes_appeared <dbl>,
#   percent_technical_top3 <dbl>, result <chr>
…
