Sciencificity's Blog: sql-in-rmarkdown
…
If we look at the data we see that Country is the 2-letter code CZ, DK, CH etc. We can use the {countrycode} package to find the actual country name.

Lets take a look at a few of the variables included in the countrycode::codelist dataframe.

library(countrycode)
codelist %>%
  select(country.name.en,
         country.name.en.regex,
         iso.name.en,
         currency,
         iso2c, iso3c)

# A tibble: 288 x 6
   country.name.en  country.name.en.~ iso.name.en currency iso2c iso3c
   <chr>            <chr>             <chr>       <chr>    <chr> <chr>
 1 Afghanistan      afghan            Afghanistan Afghani  AF    AFG  
 2 land Islands    ^[|a]land        land Isla~ Euro     AX    ALA  
 3 Albania          albania           Albania     Lek      AL    ALB  
 4 Algeria          algeria           Algeria     Algeria~ DZ    DZA  
 5 American Samoa   ^(?=.*americ).*s~ American S~ US Doll~ AS    ASM  
 6 Andorra          andorra           Andorra     Euro     AD    AND  
 7 Angola           angola            Angola      Kwanza   AO    AGO  
 8 Anguilla         anguill?a         Anguilla    East Ca~ AI    AIA  
 9 Antarctica       antarctica        Antarctica  <NA>     AQ    ATA  
10 Antigua & Barbu~ antigua           Antigua an~ East Ca~ AG    ATG  
# ... with 278 more rows
…
Show code

transit_subset %>% 
  filter(country %in% c('DK', 'TR')) %>% 
  group_by(country) %>% 
  mutate(avg_cost_km = mean(cost_km_millions, na.rm = TRUE)) %>% 
  ungroup()

# A tibble: 21 x 6
   country city       start_year end_year cost_km_millions avg_cost_km
   <chr>   <chr>      <chr>      <chr>               <dbl>       <dbl>
 1 DK      Copenhagen 2009       2019                225.         225.
 2 TR      Istanbul   1992       2015                118.         108.
 3 TR      Istanbul   2006       2013                136.         108.
 4 TR      Istanbul   2005       2012                101.         108.
 5 TR      Istanbul   2013       2016                 75.8        108.
 6 TR      Istanbul   2011       2018                101.         108.
 7 TR      Istanbul   2004       2013                206.         108.
 8 TR      Istanbul   2011       2019                 47.4        108.
 9 TR      Istanbul   2014       2022                113.         108.
10 TR      Izmir      1995       2000                103.         108.
# ... with 11 more rows
…
Alright lets see the query() function in action.

query(
  "SELECT country
    , city
    , start_year
    , end_year
    , cost_km_millions
    FROM transit_cost
    WHERE country IN ('DK', 'TR')
    ORDER BY start_year, country ;
  "
)

# A tibble: 21 x 5
   country city       start_year end_year cost_km_millions
   <chr>   <chr>      <chr>      <chr>               <dbl>
 1 TR      Istanbul   1992       2015                118. 
 2 TR      Izmir      1995       2000                103. 
 3 TR      Bursa      1997       2014                 22.9
 4 TR      Ankara     2003       2017                119. 
 5 TR      Istanbul   2004       2013                206. 
 6 TR      Istanbul   2005       2012                101. 
 7 TR      Izmir      2005       2014                 51.8
 8 TR      Istanbul   2006       2013                136. 
 9 DK      Copenhagen 2009       2019                225. 
10 TR      Izmir      2010       2012                 47.1
# ... with 11 more rows
…
We get the {dplyr} pipeline!

Toggle to {dplyr} from SQL

Copying and pasting this {dplyr} pipeline into an {r} code chunk results in the same output! Nice, eh? 

transit_cost %>%
  filter(country %in% c("DK", "TR")) %>%
  select(country, city, start_year, end_year, cost_km_millions) %>%
  arrange(start_year, country)

# A tibble: 21 x 5
   country city       start_year end_year cost_km_millions
   <chr>   <chr>      <chr>      <chr>               <dbl>
 1 TR      Istanbul   1992       2015                118. 
 2 TR      Izmir      1995       2000                103. 
 3 TR      Bursa      1997       2014                 22.9
 4 TR      Ankara     2003       2017                119. 
 5 TR      Istanbul   2004       2013                206. 
 6 TR      Istanbul   2005       2012                101. 
 7 TR      Izmir      2005       2014                 51.8
 8 TR      Istanbul   2006       2013                136. 
 9 DK      Copenhagen 2009       2019                225. 
10 TR      Izmir      2010       2012                 47.1
# ... with 11 more rows
…
